km_tsne_data	poisson_cluster	state_estimation	km_tsne_mw	km_tsne_w	km_mds	km_tsne_magic	km_pca3_magic	km_tsne_normalize
0.584	0.388	0.576	0.69	0.694	0.468	0.687	0.639	0.686
0.61	0.396	0.618	0.744	0.734	0.406	0.673	0.589	0.667
0.572	0.404	0.582	0.698	0.74	0.57	0.657	0.637	0.667
0.488	0.500	0.618	0.758	0.748	0.468	0.687	0.647	0.707
0.588	0.428	0.602	0.686	0.73	0.422	0.689	0.677	0.757
0.598	0.38	0.59	0.714	0.692	0.534	0.677	0.653	0.687
0.572	0.388	0.522	0.636	0.664	0.468	0.667	0.551	0.651
0.548	0.44	0.544	0.668	0.674	0.474	0.675	0.653	0.693
0.54	0.348	0.606	0.684	0.704	0.64	0.695	0.589	0.741
0.572	0.42	0.62	0.716	0.714	0.478	0.679	0.667	0.679
